{
	"message": "Success",
	"success": true,
	"list": [{
		"month": "Apr, 2016",
		"Income": 0,
		"Expenses": 0
	}, {
		"month": "May, 2016",
		"Income": 0,
		"Expenses": 0
	}, {
		"month": "Jun, 2016",
		"Income": 0,
		"Expenses": 0
	}, {
		"month": "Jul, 2016",
		"Income": 0,
		"Expenses": 0
	}, {
		"month": "Aug, 2016",
		"Income": 0,
		"Expenses": 0
	}, {
		"month": "Sep, 2016",
		"Income": 0,
		"Expenses": 0
	}, {
		"month": "Oct, 2016",
		"Income": 0,
		"Expenses": 0
	}, {
		"month": "Nov, 2016",
		"Income": 0,
		"Expenses": 0
	}, {
		"month": "Dec, 2016",
		"Income": 0,
		"Expenses": 0
	}, {
		"month": "Jan, 2017",
		"Income": 0,
		"Expenses": 0
	}, {
		"month": "Feb, 2017",
		"Income": "20.00",
		"Expenses": "24000.00"
	}, {
		"month": "Mar, 2017",
		"Income": 0,
		"Expenses": 0
	}, {
		"month": "Apr, 2017",
		"Income": 0,
		"Expenses": "100.00"
	}]
}