{
    "success": true,
    "total": 4,
    "list": [
        {
            "id": 1,
            "name": "Invoice",
            "comments": "fast worker",
            "sno": 2,
            "is_active": 1,
            "created_by": 1,
            "updated_by": 1,
            "created_at": "2017-02-09 10:44:52",
            "updated_at": "0000-00-00 00:00:00",
            "code": "invoice"
        },
        {
            "id": 2,
            "name": "Purchase",
            "comments": "fast worker",
            "sno": 2,	
            "is_active": 1,
            "created_by": 1,
            "updated_by": 1,
            "created_at": "2017-02-09 10:44:52",
            "updated_at": "0000-00-00 00:00:00",
            "code": "purchase"
        },
        {
            "id": 3,
            "name": "Settings",
            "comments": "fast worker",
            "sno": 2,
            "is_active": 1,
            "created_by": 1,
            "updated_by": 1,
            "created_at": "2017-02-09 10:44:52",
            "updated_at": "0000-00-00 00:00:00",
            "code": "settings"
        },        
        {
            "id": 4,
            "name": "Dashboard",
            "comments": "fast worker",
            "sno": 2,
            "is_active": 1,
            "created_by": 1,
            "updated_by": 1,
            "created_at": "2017-02-09 10:44:52",
            "updated_at": "0000-00-00 00:00:00",
            "code": "dashboard"
        }
    ]
}