{
    "success": true,
    "total": 1,
    "list": [
        {
            "id": 3,
            "username": "raj",
            "rolename": "customer",
            "name": "sakthi",
            "comments": "fastwork",
            "is_active": 1,
            "created_by": 1,
            "updated_by": 1,
            "updated_at": "2017-02-10 12:32:00",
            "created_at": "2017-02-10 12:32:00"
        },
        {
            "id": 5,
            "username": "raja",
            "rolename": "Admin",
            "name": "Kumar",
            "comments": "fastwork",
            "is_active": 1,
            "created_by": 1,
            "updated_by": 1,
            "updated_at": "2017-02-10 12:32:00",
            "created_at": "2017-02-10 12:32:00"
        }
    ]
}